aiodns==3.0.0
aiofiles==23.1.0
aiohttp==3.8.4
aiomultiprocess==0.9.0
aiosqlite==0.19.0
beautifulsoup4==4.12.2
censys==2.2.2
certifi==2023.5.7
dnspython==2.3.0
fastapi==0.95.2
lxml==4.9.2
netaddr==0.8.0
ujson==5.7.0
pyppeteer==1.0.2
PyYAML==6.0
python-dateutil==2.8.2
requests==2.30.0
retrying==1.3.4
setuptools==67.7.2
shodan==1.29.1
slowapi==0.1.8
uvicorn==0.22.0
uvloop==0.17.0; platform_system != "Windows"
